Building a corpus of tweets with R
…
7 Remove Stop Words

Stop words are words that are very common in a language, but might not carry a lot of meaning, like function words. Stop words often include pronouns as well, modals, and frequent adverbs.

# check stop_words data frame
stop_words %>%
  count(word) %>%
  arrange(-n)

## # A tibble: 728 x 2
##    word        n
##    <chr>   <int>
##  1 down        4
##  2 would       4
##  3 a           3
##  4 about       3
##  5 above       3
##  6 after       3
##  7 again       3
##  8 against     3
##  9 all         3
## 10 an          3
## #  with 718 more rows
…
